%YAML 1.1
%TAG !u! tag:unity3d.com,2011:
--- !u!114 &11400000
MonoBehaviour:
  m_ObjectHideFlags: 0
  m_CorrespondingSourceObject: {fileID: 0}
  m_PrefabInstance: {fileID: 0}
  m_PrefabAsset: {fileID: 0}
  m_GameObject: {fileID: 0}
  m_Enabled: 1
  m_EditorHideFlags: 0
  m_Script: {fileID: 11500000, guid: f22f0fabcaa317548990689b3d19967b, type: 3}
  m_Name: 0004_HelmetProva
  m_EditorClassIdentifier: 
  ID: 0004
  myName: Helmet prova
  desc: An helmet of no use
  icon: {fileID: 21300000, guid: 10106d5e0c8e78e4a8c6fca4cedd8255, type: 3}
  occupiedSpace: 1
  type: 0
  myRarity: 0
  itemPrefab: {fileID: 2534548189186978462, guid: d0200101b7607be41ad63ab2bf7be55a,
    type: 3}
  equipType: 1
  bonusStats:
  - stat: 1
    value: 3
